[
    "<a href=\"https://deno.land\" title=\"Go to the website\" target=\"_blank\" rel=\"noreferrer\">Deno</a>, the new runtime JS and TS, <strong>is an anagram</strong>&nbsp;: Rearrange the letters in <strong>Node</strong> to spell <strong>Deno</strong>.",
    "The <em>The German Laws and federal regulations <span lang=\"de\" class=\"light\">&mdash; Bundesgesetze und -verordnungen &mdash;</span></em> are versioned with <strong>Git</strong> and hosted on <a href=\"https://github.com/bundestag/gesetz\" title=\"Go on the website\" target=\"_blank\" rel=\"noreferrer\">GitHub</a>",
    "At its creation in 1995 the acronym <strong>'PHP'</strong> meant <em>Personal Home Page / Forms Interpreter</em> ; so <strong>PHP/FI</strong>",
    "A DOM query is <strong>34 times slower</strong> in jQuery than pure JavaScript <span class=\"light\">— source : <a href=\"http://vanilla-js.com/\" title=\"Go on the website\" target=\"_blank\" rel=\"noreferrer\">vanilla-js.com</a></span>.",
    "In PHP, the operator <strong>'::'</strong> is called <em>Paamayim Nekudotayim</em>"
]